READ_ALL_BYTES|8565|5
INPUT_STREAM|14949|5
FILE_CHANNEL|5908|5
ASYNC_FILE_CHANNEL|6558|5
READ_ALL_BYTES|14636|10
INPUT_STREAM|30048|10
FILE_CHANNEL|12041|10
ASYNC_FILE_CHANNEL|14794|10
READ_ALL_BYTES|31353|20
INPUT_STREAM|62383|20
FILE_CHANNEL|24728|20
ASYNC_FILE_CHANNEL|31185|20
READ_ALL_BYTES|74267|50
INPUT_STREAM|144420|50
FILE_CHANNEL|58052|50
ASYNC_FILE_CHANNEL|69409|50
READ_ALL_BYTES|8699|5
INPUT_STREAM|15207|5
FILE_CHANNEL|6186|5
ASYNC_FILE_CHANNEL|6821|5
READ_ALL_BYTES|16318|10
INPUT_STREAM|30001|10
FILE_CHANNEL|12473|10
ASYNC_FILE_CHANNEL|15024|10
READ_ALL_BYTES|30570|20
INPUT_STREAM|61545|20
FILE_CHANNEL|23866|20
ASYNC_FILE_CHANNEL|29128|20
READ_ALL_BYTES|72997|50
INPUT_STREAM|145199|50
FILE_CHANNEL|58268|50
ASYNC_FILE_CHANNEL|73851|50
READ_ALL_BYTES|9431|5
INPUT_STREAM|15314|5
FILE_CHANNEL|5906|5
ASYNC_FILE_CHANNEL|6832|5
READ_ALL_BYTES|15870|10
INPUT_STREAM|30449|10
FILE_CHANNEL|12229|10
ASYNC_FILE_CHANNEL|14588|10
READ_ALL_BYTES|30791|20
INPUT_STREAM|60286|20
FILE_CHANNEL|22693|20
ASYNC_FILE_CHANNEL|28640|20
READ_ALL_BYTES|71557|50
INPUT_STREAM|147494|50
FILE_CHANNEL|55425|50
ASYNC_FILE_CHANNEL|70057|50
READ_ALL_BYTES|9547|5
INPUT_STREAM|16224|5
FILE_CHANNEL|5971|5
ASYNC_FILE_CHANNEL|6961|5
READ_ALL_BYTES|15851|10
INPUT_STREAM|30237|10
FILE_CHANNEL|13012|10
ASYNC_FILE_CHANNEL|14511|10
READ_ALL_BYTES|29640|20
INPUT_STREAM|59259|20
FILE_CHANNEL|22733|20
ASYNC_FILE_CHANNEL|27894|20
READ_ALL_BYTES|67309|50
INPUT_STREAM|147250|50
FILE_CHANNEL|62401|50
ASYNC_FILE_CHANNEL|75362|50
READ_ALL_BYTES|9582|5
INPUT_STREAM|17076|5
FILE_CHANNEL|5882|5
ASYNC_FILE_CHANNEL|7054|5
READ_ALL_BYTES|15632|10
INPUT_STREAM|30118|10
FILE_CHANNEL|11316|10
ASYNC_FILE_CHANNEL|13528|10
READ_ALL_BYTES|27984|20
INPUT_STREAM|58334|20
FILE_CHANNEL|23680|20
ASYNC_FILE_CHANNEL|28542|20
READ_ALL_BYTES|68448|50
INPUT_STREAM|150198|50
FILE_CHANNEL|58459|50
ASYNC_FILE_CHANNEL|69205|50
READ_ALL_BYTES|8555|5
INPUT_STREAM|14875|5
FILE_CHANNEL|5630|5
ASYNC_FILE_CHANNEL|6579|5
READ_ALL_BYTES|14436|10
INPUT_STREAM|28724|10
FILE_CHANNEL|11219|10
ASYNC_FILE_CHANNEL|13267|10
READ_ALL_BYTES|27518|20
INPUT_STREAM|57866|20
FILE_CHANNEL|22580|20
ASYNC_FILE_CHANNEL|27921|20
READ_ALL_BYTES|67182|50
INPUT_STREAM|150722|50
FILE_CHANNEL|60059|50
ASYNC_FILE_CHANNEL|69384|50
READ_ALL_BYTES|8590|5
INPUT_STREAM|15168|5
FILE_CHANNEL|5730|5
ASYNC_FILE_CHANNEL|6628|5
READ_ALL_BYTES|14405|10
INPUT_STREAM|28779|10
FILE_CHANNEL|11181|10
ASYNC_FILE_CHANNEL|13457|10
READ_ALL_BYTES|27524|20
INPUT_STREAM|57814|20
FILE_CHANNEL|22243|20
ASYNC_FILE_CHANNEL|27772|20
READ_ALL_BYTES|67389|50
INPUT_STREAM|156387|50
FILE_CHANNEL|59222|50
ASYNC_FILE_CHANNEL|70195|50
READ_ALL_BYTES|8089|5
INPUT_STREAM|14978|5
FILE_CHANNEL|6077|5
ASYNC_FILE_CHANNEL|6644|5
READ_ALL_BYTES|14633|10
INPUT_STREAM|28630|10
FILE_CHANNEL|11313|10
ASYNC_FILE_CHANNEL|13808|10
READ_ALL_BYTES|27520|20
INPUT_STREAM|60157|20
FILE_CHANNEL|23437|20
ASYNC_FILE_CHANNEL|27637|20
READ_ALL_BYTES|70940|50
INPUT_STREAM|153147|50
FILE_CHANNEL|57937|50
ASYNC_FILE_CHANNEL|67596|50
READ_ALL_BYTES|8407|5
INPUT_STREAM|14882|5
FILE_CHANNEL|5744|5
ASYNC_FILE_CHANNEL|6746|5
READ_ALL_BYTES|14942|10
INPUT_STREAM|28581|10
FILE_CHANNEL|11226|10
ASYNC_FILE_CHANNEL|13667|10
READ_ALL_BYTES|27730|20
INPUT_STREAM|57425|20
FILE_CHANNEL|22804|20
ASYNC_FILE_CHANNEL|28869|20
READ_ALL_BYTES|75242|50
INPUT_STREAM|152145|50
FILE_CHANNEL|55194|50
ASYNC_FILE_CHANNEL|70804|50
READ_ALL_BYTES|8539|5
INPUT_STREAM|14860|5
FILE_CHANNEL|5881|5
ASYNC_FILE_CHANNEL|6906|5
READ_ALL_BYTES|14749|10
INPUT_STREAM|28631|10
FILE_CHANNEL|11501|10
ASYNC_FILE_CHANNEL|13948|10
READ_ALL_BYTES|27896|20
INPUT_STREAM|60382|20
FILE_CHANNEL|24588|20
ASYNC_FILE_CHANNEL|31924|20
READ_ALL_BYTES|73911|50
INPUT_STREAM|150642|50
FILE_CHANNEL|54834|50
ASYNC_FILE_CHANNEL|68033|50
